cynkra blog - Introducing dm: easy juggling of tables and relations
…
This requires columns lon (longitude) from table airports, year from table planes and arr_delay (arrival delay) from flights. We can do this by performing multiple joins, one after another, as you might be used to:

library(nycflights13)
library(dplyr)

planes_join <- planes %>%
  rename(production_year_plane = year) %>%
  left_join(flights, by = "tailnum") %>%
  left_join(airports, by = c("dest" = "faa")) %>%
  select(lon, year, production_year_plane, dest)

planes_join %>%
  filter(production_year_plane < 1983)

## # A tibble: 1,432 x 4
##      lon  year production_year_plane dest
##    <dbl> <int>                 <int> <chr>
##  1 -95.3  2013                  1965 IAH
##  2 -95.3  2013                  1965 IAH
##  3 -95.3  2013                  1965 IAH
##  4 -95.3  2013                  1965 IAH
##  5 -87.9  2013                  1959 ORD
##  6 -97.0  2013                  1959 DFW
##  7 -97.0  2013                  1959 DFW
##  8 -97.0  2013                  1959 DFW
##  9 -90.4  2013                  1959 STL
## 10 -97.0  2013                  1959 DFW
## # … with 1,422 more rows
…
This produces an overview of your data sources — all tables still separated. Also note: there was no need to rename() the column year, and all tables stay separate.

What if you still wanted to produce a join and check where those flights departed to? Voilà:

cdm_nycflights13() %>%
  cdm_filter(planes, year < 1983) %>%
  cdm_join_tbl(flights, airports)

## # A tibble: 1,432 x 19
##     year month   day dep_time sched_dep_time dep_delay arr_time
##    <int> <int> <int>    <int>          <int>     <dbl>    <int>
##  1  2013     1     1      839            850       -11     1027
##  2  2013     1     1      858            900        -2     1102
##  3  2013     1     1     1219           1220        -1     1415
##  4  2013     1     1     1317           1325        -8     1454
##  5  2013     1     1     1422           1410        12     1613
##  6  2013     1     1     1806           1810        -4     2002
##  7  2013     1     1     1911           1910         1     2050
##  8  2013     1     1     2030           2045       -15     2150
##  9  2013     1     2      535            540        -5      831
## 10  2013     1     2      945            945         0     1113
## # … with 1,422 more rows, and 12 more variables: sched_arr_time <int>,
## #   arr_delay <dbl>, carrier <chr>, flight <int>, tailnum <chr>,
## #   origin <chr>, dest <chr>, air_time <dbl>, distance <dbl>, hour <dbl>,
## #   minute <dbl>, time_hour <dttm>
…
