…
## New and extended functionality

- [`ts_frequency()`](https://www.tsbox.help/reference/ts_frequency.html): changes the frequency of a time series. It is now possible to aggregate any time series to years, quarters, months, weeks, days, hours, minutes or seconds. For low- to high-frequency conversion, the [tempdisagg](https://cran.r-project.org/web/packages/tempdisagg/index.html) package can now [convert low frequency to high frequency](https://cran.r-project.org/web/packages/tempdisagg/vignettes/hf-disagg.html) and has support for ts-boxable objects.
E.g.:

    ``` r
    library(tsbox)
    x <- ts_tbl(EuStockMarkets)
    x
    #> # A tibble: 7,440 × 3
    #>   id    time                 value
    #>   <chr> <dttm>               <dbl>
    #> 1 DAX   1991-07-01 03:18:27  1629.
    #> 2 DAX   1991-07-02 13:01:32  1614.
    #> 3 DAX   1991-07-03 22:44:38  1607.
    #> 4 DAX   1991-07-05 08:27:43  1621.
    #> 5 DAX   1991-07-06 18:10:48  1618.
    #> # … with 7,435 more rows

    ts_frequency(x, "week")
    #> # A tibble: 1,492 × 3
    #>   id    time        value
    #>   <chr> <date>      <dbl>
    #> 1 DAX   1991-06-30  1618.
    #> 2 DAX   1991-07-07  1633.
    #> 3 DAX   1991-07-14  1632.
    #> 4 DAX   1991-07-21  1620.
    #> 5 DAX   1991-07-28  1616.
    #> # … with 1,487 more rows
    ```

- [`ts_index()`](https://www.tsbox.help/reference/ts_index.html): returns an indexed series, with a value of 1 at the base period.
This base period can now be specified more flexibly. E.g., the average of a year can defined as 1 (which is a common use case).

- [`ts_na_interpolation()`](https://www.tsbox.help/reference/ts_examples.html): A new function that wraps `imputeTS::na_interpolation()` from the [imputeTS](https://steffenmoritz.github.io/imputeTS/) package and allows the imputation of missing values for any time series object.

- [`ts_first_of_period()`](https://www.tsbox.help/reference/ts_first_of_period.html): A new function that replaces the date or time value by the first of the period. This is useful because tsbox usually relies on timestamps being the first of a period. The following monthly series has an offset of 14 days. `ts_first_of_period()` changes the timestamp to the first date of each month:

    ``` r
    x <- ts_lag(ts_tbl(mdeaths), "14 days")
    x
    #> # A tibble: 72 × 2
    #>   time       value
    #>   <date>     <dbl>
    #> 1 1974-01-15  2134
    #> 2 1974-02-15  1863
    #> 3 1974-03-15  1877
    #> 4 1974-04-15  1877
    #> 5 1974-05-15  1492
    #> # … with 67 more rows

    ts_first_of_period(x)
    #> # A tibble: 72 × 2
    #>   time       value
    #>   <date>     <dbl>
    #> 1 1974-01-01  2134
    #> 2 1974-02-01  1863
    #> 3 1974-03-01  1877
    #> 4 1974-04-01  1877
    #> 5 1974-05-01  1492
    #> # … with 67 more rows
    ```
…
