cynkra blog - Relational data models in R
…
If the data fits into your RAM, a database connection is not required to use dm. The collect() command downloads all tables for our dm object.

my_local_dm <-
  my_dm %>%
  collect()

object.size(my_local_dm)
## 77922024 bytes

my_local_dm$accounts %>%
  group_by(district_id) %>%
  summarize(n = n()) %>%
  ungroup()

## # A tibble: 77 x 2
##   district_id     n
##         <int> <int>
## 1           1   554
## 2           2    42
## 3           3    50
## 4           4    48
## 5           5    65
## 6           6    48
## # … with 71 more rows
…
Create a dataset ready for analysis

For modeling, a flat table or matrix is required as input. If normalization is the process of splitting up a table to reduce redundancies, joining multiple tables together is called denormalizing.

The dm_squash_to_tbl() function creates a denormalized table by performing a cascading join between cards and all outgoing foreign keys. A join is the SQL term for combining some or all of the unique columns between 2 or more tables into a single table using the appropriate keys. In this case, the cards table has a foreign key to disps table, which has a foreign key to accounts, which also has a foreign key to the districts table. These foreign key relationships are then used in a cascading join within the dm_squash_to_tbl() function, without having to specify the relationships because they are already encoded within the dm object.

my_dm_keys %>%
  dm_squash_to_tbl(cards)

## Renamed columns:
## * type -> cards$cards.type, disps$disps.type
## * district_id -> accounts$accounts.district_id, clients$clients.district_id

## # A tibble: 892 x 28
##      id disp_id cards.type issued     client_id account_id disps.type
##   <int>   <int> <chr>      <date>         <int>      <int> <chr>
## 1     1       9 gold       1998-10-16         9          7 OWNER
## 2     2      19 classic    1998-03-13        19         14 OWNER
## 3     3      41 gold       1995-09-03        41         33 OWNER
## 4     4      42 classic    1998-11-26        42         34 OWNER
## 5     5      51 junior     1995-04-24        51         43 OWNER
## 6     7      56 classic    1998-06-11        56         48 OWNER
## # … with 886 more rows, and 21 more variables: accounts.district_id <int>,
## #   frequency <chr>, date <date>, A2 <chr>, A3 <chr>, A4 <int>, A5 <int>,
## #   A6 <int>, A7 <int>, A8 <int>, A9 <int>, A10 <dbl>, A11 <int>, A12 <dbl>,
## #   A13 <dbl>, A14 <int>, A15 <int>, A16 <int>, birth_number <chr>,
## #   clients.district_id <int>, tkey_id <int>
…
